\relax 
\citation{Tao}
\@writefile{toc}{\contentsline {section}{\numberline {1}The rational and the real numbers}{2}{}\protected@file@percent }
\@writefile{toc}{\contentsline {section}{\numberline {2}Sequences}{3}{}\protected@file@percent }
\@writefile{toc}{\contentsline {section}{\numberline {3}Series}{6}{}\protected@file@percent }
\@writefile{toc}{\contentsline {section}{\numberline {4}Infinite sets}{9}{}\protected@file@percent }
\@writefile{toc}{\contentsline {section}{\numberline {5}Continuous functions}{12}{}\protected@file@percent }
\@writefile{toc}{\contentsline {section}{\numberline {6}Differentiation}{14}{}\protected@file@percent }
\@writefile{toc}{\contentsline {section}{\numberline {7}The Riemann integral}{16}{}\protected@file@percent }
\@writefile{toc}{\contentsline {section}{\numberline {8}Metric spaces}{20}{}\protected@file@percent }
\@writefile{toc}{\contentsline {section}{\numberline {9}Continuous functions on metric spaces}{24}{}\protected@file@percent }
\@writefile{toc}{\contentsline {section}{\numberline {10}Uniform convergence}{27}{}\protected@file@percent }
\@writefile{toc}{\contentsline {section}{\numberline {11}Power series}{32}{}\protected@file@percent }
\@writefile{toc}{\contentsline {section}{\numberline {12}Fourier series}{36}{}\protected@file@percent }
\@writefile{toc}{\contentsline {section}{\numberline {13}Several variable differential calculus}{40}{}\protected@file@percent }
\@writefile{toc}{\contentsline {section}{\numberline {14}Lebesgue measure}{44}{}\protected@file@percent }
\@writefile{toc}{\contentsline {section}{\numberline {15}Lebesgue integration}{48}{}\protected@file@percent }
\bibstyle{unsrt}
\bibdata{ref}
\bibcite{Tao}{1}
\gdef \@abspage@last{53}
